<?xml version="1.0" standalone="no"?>
<!DOCTYPE svg PUBLIC "-//W3C//DTD SVG 1.1//EN" "http://www.w3.org/Graphics/SVG/1.1/DTD/svg11.dtd" >
<!--
2014-4-7: Created.
-->
<svg xmlns="http://www.w3.org/2000/svg">
<metadata>
Created by FontForge 20120731 at Mon Apr  7 14:50:44 2014
 By P.J. Onori
Created by P.J. Onori with FontForge 2.0 (http://fontforge.sf.net)
</metadata>
<defs>
<font id="iconic-lg" horiz-adv-x="12800" >
  <font-face 
    font-family="Iconic"
    font-weight="400"
    font-stretch="normal"
    units-per-em="12800"
    panose-1="2 0 5 3 0 0 0 0 0 0"
    ascent="12800"
    descent="0"
    bbox="-1.46293 -100 12810 12800"
    underline-thickness="50"
    underline-position="-100"
    unicode-range="U+E000-E215"
  />
    <missing-glyph />
    <glyph glyph-name="0" unicode="&#xe000;" 
d="M4200 12800h8600v-12800h-8600v800h7800v11200h-7800v800zM6800 7650c0 87 66 106 131 69l2138 -1238c70 -50 70 -110 0 -150l-2138 -1250c-70 -50 -131 -11 -131 69v850h-6800v800h6800v850z" />
    <glyph glyph-name="1" unicode="&#xe001;" 
d="M4121 12800h8600v-12800h-8600v800h7800v11200h-7800v800zM2190 7709c59 42 131 23 131 -68v-841h6800v-800h-6800v-859c0 -80 -61 -112 -131 -72l-2138 1250c-70 50 -70 112 0 162z" />
    <glyph glyph-name="2" unicode="&#xe002;" 
d="M5894 11100c3260 0 5900 -2640 5900 -5900v-491h850c80 0 108 -58 68 -128l-1837 -2950c-40 -70 -123 -70 -163 0l-1837 2950c-40 70 -11 128 69 128h850v491c0 2710 -2190 4900 -4900 4900c-2625 0 -4763 -2055 -4894 -4647c133 3142 2719 5647 5894 5647z" />
    <glyph glyph-name="3" unicode="&#xe003;" 
d="M6837 11100c3175 0 5760 -2505 5893 -5647c-131 2592 -2268 4647 -4893 4647c-2710 0 -4900 -2190 -4900 -4900v-500h850c80 0 108 -61 68 -131l-1837 -2938c-40 -70 -123 -70 -163 0l-1837 2938c-40 70 -11 131 69 131h850v500c0 3260 2640 5900 5900 5900z" />
    <glyph glyph-name="4" unicode="&#xe004;" 
d="M0 10700h12800v-800h-12800v800zM1900 8100h9000v-800h-9000v800zM0 5500h12800v-800h-12800v800zM1900 2900h9000v-800h-9000v800z" />
    <glyph glyph-name="5" unicode="&#xe005;" 
d="M0 10700h12800v-800h-12800v800zM0 8100h9000v-800h-9000v800zM0 5500h12800v-800h-12800v800zM0 2900h9000v-800h-9000v800z" />
    <glyph glyph-name="6" unicode="&#xe006;" 
d="M0 10700h12800v-800h-12800v800zM3800 8100h9000v-800h-9000v800zM0 5500h12800v-800h-12800v800zM3800 2900h9000v-800h-9000v800z" />
    <glyph glyph-name="7" unicode="&#xe007;" 
d="M6400 12800c300 0 601 -19 891 -59l-3550 -6141l-2250 3900c1170 1410 2939 2300 4909 2300zM7500 12700c2200 -380 4021 -1880 4841 -3900h-7091zM1359 10341l3541 -6141h-4509c-250 690 -391 1430 -391 2200c0 1490 509 2851 1359 3941zM7900 8600h4509
c250 -690 391 -1430 391 -2200c0 -1490 -509 -2851 -1359 -3941zM9060 6200l2250 -3900c-1170 -1410 -2940 -2300 -4910 -2300c-300 0 -601 19 -881 59zM469 4000h7081l-2250 -3900c-2200 380 -4011 1880 -4831 3900z" />
    <glyph glyph-name="8" unicode="&#xe008;" horiz-adv-x="2800" 
d="M950 12700h1h800v-9600h850c80 0 120 -60 90 -140l-1281 -2919c-30 -80 -89 -80 -119 -10l-1281 2928c-30 80 10 141 90 141h850v9600z" />
    <glyph glyph-name="9" unicode="&#xe009;" horiz-adv-x="2800" 
d="M960 12700h800v-9766l869 497c80 40 111 8 81 -72l-950 -2425v-34h-12l-338 -859c-30 -80 -69 -80 -109 0l-335 859h-6v16l-950 2443c-30 80 11 112 81 72l869 -497v9766z" />
    <glyph glyph-name="10" unicode="&#xe00a;" horiz-adv-x="4000" 
d="M1550 12700h801v-8200h1450c80 0 120 -61 90 -141l-1881 -4318c-30 -80 -89 -80 -119 0l-1881 4318c-30 80 10 141 90 141h1450v8200z" />
    <glyph glyph-name="11" unicode="&#xe00b;" horiz-adv-x="4000" 
d="M1552 12700h800v-8769l1469 888c70 40 102 20 72 -60c-627 -1573 -1258 -3143 -1882 -4719c-40 -80 -79 -80 -109 0l-344 860h-6v16l-1541 3843c-30 70 2 100 72 60l1469 -888v8769z" />
    <glyph glyph-name="12" unicode="&#xe00c;" horiz-adv-x="4700" 
d="M1923 12700h800v-11000h1850c80 0 102 -41 32 -91l-2163 -1618c-70 -50 -167 -50 -237 0l-2163 1618c-70 50 -48 91 32 91h1850z" />
    <glyph glyph-name="13" unicode="&#xe00d;" horiz-adv-x="3900" 
d="M1541 12700h800v-9400h1450c80 0 109 -61 69 -131l-1838 -3138c-50 -70 -110 -70 -150 0l-1850 3138c-50 70 -11 131 69 131h1450v9400z" />
    <glyph glyph-name="14" unicode="&#xe00e;" horiz-adv-x="3500" 
d="M1323 12700h800v-11400h1250c80 0 102 -41 32 -91l-1563 -1218c-70 -50 -167 -50 -237 0l-1563 1218c-70 50 -48 91 32 91h1250z" />
    <glyph glyph-name="15" unicode="&#xe00f;" horiz-adv-x="2700" 
d="M932 12700h800v-10400h859c80 0 112 -61 72 -131l-1250 -2138c-50 -70 -111 -70 -141 0l-1250 2138c-50 70 -11 131 69 131h841v10400z" />
    <glyph glyph-name="16" unicode="&#xe010;" horiz-adv-x="9300" 
d="M8728 11009l565 -565l-6790 -6788l603 -603c57 -57 40 -127 -38 -162l-2968 -1160c-78 -35 -119 7 -91 78l1166 2975c35 78 105 95 162 38l603 -603z" />
    <glyph glyph-name="17" unicode="&#xe011;" horiz-adv-x="9300" 
d="M8723 11009l566 -565l-6906 -6906l965 -266c85 -28 84 -71 6 -106l-2387 -1044l-22 -22l-9 9l-847 -371c-78 -35 -106 -7 -78 78l372 846l-4 4l10 9l1056 2400c35 78 85 72 106 -6l266 -966z" />
    <glyph glyph-name="18" unicode="&#xe012;" horiz-adv-x="9300" 
d="M8725 11009c189 -189 377 -376 566 -565l-5800 -5800l1025 -1025c56 -57 43 -128 -35 -163l-4384 -1725c-78 -35 -119 7 -84 85l1725 4384c35 78 105 91 162 34l1025 -1025z" />
    <glyph glyph-name="19" unicode="&#xe013;" horiz-adv-x="9300" 
d="M8721 11009l566 -565l-6200 -6200l1665 -413c78 -21 88 -55 10 -90l-4669 -2010c-85 -28 -113 0 -78 78l365 853l-3 4l7 6l1634 3812c28 71 70 69 91 -9l412 -1666z" />
    <glyph glyph-name="20" unicode="&#xe014;" horiz-adv-x="9800" 
d="M9175 11209l565 -565l-7778 -7781l1306 -1307c57 -57 45 -98 -40 -84l-2675 381c-85 14 -155 84 -169 169l-381 2675c-14 85 27 98 84 41l1306 -1307z" />
    <glyph glyph-name="21" unicode="&#xe015;" horiz-adv-x="9300" 
d="M8734 11009l565 -565l-6647 -6647l1025 -1025c56 -57 35 -123 -43 -144l-3522 -919c-85 -14 -128 29 -107 107l913 3528c14 85 87 101 144 44l1025 -1026z" />
    <glyph glyph-name="22" unicode="&#xe016;" horiz-adv-x="9600" 
d="M9034 11109l566 -565l-8063 -8063l885 -884c56 -57 41 -99 -44 -85l-1966 241c-85 14 -155 84 -169 169l-240 1966c-14 85 27 100 84 43l885 -884z" />
    <glyph glyph-name="23" unicode="&#xe017;" horiz-adv-x="9300" 
d="M1371 3653l7357 7357l565 -566l-7356 -7356l610 -607c56 -56 34 -119 -44 -140l-2397 -632c-85 -14 -125 29 -97 100l628 2397c14 85 84 98 141 41z" />
    <glyph glyph-name="24" unicode="&#xe018;" horiz-adv-x="9400" 
d="M8769 11009l565 -565l-7896 -7897l3300 472l-779 -778l-3959 -566l566 3959l778 778l-472 -3300z" />
    <glyph glyph-name="25" unicode="&#xe019;" horiz-adv-x="9400" 
d="M8769 11009l565 -565l-7828 -7828l4291 615l-847 -850l-4950 -706l706 4950l850 847l-615 -4291z" />
    <glyph glyph-name="26" unicode="&#xe01a;" horiz-adv-x="10000" 
d="M9334 11309l566 -565l-8134 -8135l3465 -493l-706 -707l-3959 566l-566 3959l706 707l494 -3466z" />
    <glyph glyph-name="27" unicode="&#xe01b;" horiz-adv-x="9400" 
d="M8769 11009l565 -565l-7990 -7991h3675l-778 -778h-4241v4241l778 778v-3675z" />
    <glyph glyph-name="28" unicode="&#xe01c;" horiz-adv-x="9800" 
d="M9194 11209l565 -565l-8128 -8128l2753 -360l-706 -706l-3253 425l-425 3253l706 706l360 -2753z" />
    <glyph glyph-name="29" unicode="&#xe01d;" horiz-adv-x="9400" 
d="M8769 11009l565 -565l-8062 -8063h2828l-706 -706h-3394v3394l706 706v-2828z" />
    <glyph glyph-name="30" unicode="&#xe01e;" horiz-adv-x="4800" 
d="M2000 12800h800v-11166l2000 2666v-1100l-2400 -3200l-2400 3200v1100l2000 -2666v11166z" />
    <glyph glyph-name="31" unicode="&#xe01f;" horiz-adv-x="6000" 
d="M2600 12800h800v-11066l2600 3466v-1200l-3000 -4000l-3000 4000v1200l2600 -3466v11066z" />
    <glyph glyph-name="32" unicode="&#xe020;" horiz-adv-x="6400" 
d="M2800 12800h800v-11500l2800 2100v-1000l-3200 -2400l-3200 2400v1000l2800 -2100v11500z" />
    <glyph glyph-name="33" unicode="&#xe021;" horiz-adv-x="6000" 
d="M2600 12800h800v-11300l2600 2600v-1100l-3000 -3000l-3000 3000v1100l2600 -2600v11300z" />
    <glyph glyph-name="34" unicode="&#xe022;" horiz-adv-x="5200" 
d="M2200 12800h800v-11494l2200 1694v-1000l-2600 -2000l-2600 2000v1000l2200 -1694v11494z" />
    <glyph glyph-name="35" unicode="&#xe023;" horiz-adv-x="4800" 
d="M2000 12800h800v-11400l2000 2000v-1000l-2400 -2400l-2400 2400v1000l2000 -2000v11400z" />
    <glyph glyph-name="36" unicode="&#xe024;" horiz-adv-x="9300" 
d="M566 11010l6787 -6791l603 603c57 57 128 40 163 -38l1159 -2968c35 -78 -7 -119 -78 -91l-2975 1166c-78 35 -94 105 -37 162l603 603l-6791 6788z" />
    <glyph glyph-name="37" unicode="&#xe025;" horiz-adv-x="9300" 
d="M0 10444l566 565l6906 -6906l265 966c28 85 72 84 107 6l1044 -2388l21 -21l-9 -10l372 -847c35 -78 7 -106 -78 -78l-847 372l-3 -3l-10 9l-2400 1057c-78 35 -71 85 7 106l965 266z" />
    <glyph glyph-name="38" unicode="&#xe026;" horiz-adv-x="9300" 
d="M0 10444l566 566l5800 -5800l1025 1024c57 56 127 44 162 -34l1725 -4384c35 -78 -6 -120 -84 -85l-4385 1725c-78 35 -91 106 -34 163l1025 1025z" />
    <glyph glyph-name="39" unicode="&#xe027;" horiz-adv-x="9300" 
d="M566 11009l6200 -6200l412 1666c21 78 56 87 91 9l2009 -4668c28 -85 0 -113 -78 -78l-853 365l-3 -3l-6 6l-3813 1635c-71 28 -69 69 9 90l1666 413l-6200 6200z" />
    <glyph glyph-name="40" unicode="&#xe028;" horiz-adv-x="9800" 
d="M0 10644l566 565l7781 -7778l1306 1307c57 57 99 44 85 -41l-382 -2675c-14 -85 -84 -155 -169 -169l-2675 -381c-85 -14 -97 27 -40 84l1306 1306z" />
    <glyph glyph-name="41" unicode="&#xe029;" horiz-adv-x="9400" 
d="M566 11010l6646 -6647l1026 1025c57 56 122 34 143 -44l919 -3522c14 -85 -28 -127 -106 -106l-3528 912c-85 14 -101 87 -44 144l1025 1025l-6647 6647z" />
    <glyph glyph-name="42" unicode="&#xe02a;" horiz-adv-x="9600" 
d="M566 11109l8062 -8062l884 884c57 56 99 42 85 -43l-241 -1966c-14 -85 -83 -155 -168 -169l-1966 -241c-85 -14 -101 28 -44 85l884 884l-8062 8063z" />
    <glyph glyph-name="43" unicode="&#xe02b;" horiz-adv-x="9400" 
d="M566 11009l7356 -7356l606 610c56 56 120 34 141 -44l631 -2397c14 -85 -29 -125 -100 -97l-2397 628c-85 14 -98 84 -41 141l594 594l-7356 7356z" />
    <glyph glyph-name="44" unicode="&#xe02c;" horiz-adv-x="9400" 
d="M0 10444l566 566l7897 -7897l-472 3300l778 -779l565 -3959l-3959 566l-778 778l3300 -472z" />
    <glyph glyph-name="45" unicode="&#xe02d;" horiz-adv-x="9400" 
d="M566 11009l7828 -7828l-616 4291l850 -847l706 -4950l-4950 706l-846 850l4290 -615l-7828 7828z" />
    <glyph glyph-name="46" unicode="&#xe02e;" horiz-adv-x="10000" 
d="M566 11309l8134 -8134l494 3466l706 -707l-566 -3959l-3959 -566l-706 707l3465 493l-8134 8135z" />
    <glyph glyph-name="47" unicode="&#xe02f;" horiz-adv-x="9400" 
d="M566 11009l7990 -7990v3675l778 -778v-4241h-4240l-778 778h3675l-7991 7991z" />
    <glyph glyph-name="48" unicode="&#xe030;" horiz-adv-x="9800" 
d="M566 11209l8128 -8128l359 2753l706 -706l-425 -3253l-3253 -425l-706 706l2753 360l-8128 8128z" />
    <glyph glyph-name="49" unicode="&#xe031;" horiz-adv-x="9400" 
d="M0 10444l566 566l8062 -8063v2828l706 -706v-3394h-3393l-707 706h2828z" />
    <glyph glyph-name="50" unicode="&#xe032;" 
d="M3036 7750c51 -2 84 -40 84 -100v-850h9600v-800h-9600v-850c0 -80 -60 -121 -140 -91l-2919 1281c-80 30 -79 89 -9 119l2928 1282c20 8 39 10 56 9z" />
    <glyph glyph-name="51" unicode="&#xe033;" 
d="M3379 7650c64 21 120 3 72 -81l-497 -869h9765v-800h-9765l497 -869c40 -80 8 -111 -72 -81l-2425 950h-35v12l-859 338c-80 30 -80 69 0 109l859 335v6h16z" />
    <glyph glyph-name="52" unicode="&#xe034;" 
d="M4435 8350c51 -2 84 -40 84 -100v-1450h8200v-800h-8200v-1450c0 -80 -60 -121 -140 -91l-4319 1881c-80 30 -80 89 0 119l4319 1882c20 8 39 10 56 9z" />
    <glyph glyph-name="53" unicode="&#xe035;" 
d="M4779 8341c56 24 103 6 59 -72l-887 -1469h8769v-800h-8769l887 -1469c40 -70 21 -102 -59 -72c-1573 627 -3143 1257 -4719 1881c-80 40 -80 80 0 110l859 344v6h16z" />
    <glyph glyph-name="54" unicode="&#xe036;" 
d="M1656 8681c38 53 91 65 91 -31v-1850h11000v-800h-11000v-1850c0 -80 -41 -101 -91 -31l-1618 2162c-50 70 -50 168 0 238z" />
    <glyph glyph-name="55" unicode="&#xe037;" 
d="M3190 8219c59 42 131 22 131 -69v-1450h9400v-800h-9400v-1450c0 -80 -61 -109 -131 -69l-3138 1838c-70 50 -70 110 0 150z" />
    <glyph glyph-name="56" unicode="&#xe038;" 
d="M1256 8081c38 53 91 65 91 -31v-1250h11400v-800h-11400v-1250c0 -80 -41 -101 -91 -31l-1218 1562c-50 70 -50 168 0 238z" />
    <glyph glyph-name="57" unicode="&#xe039;" 
d="M2190 7709c59 42 131 23 131 -68v-841h10400v-800h-10400v-859c0 -80 -61 -112 -131 -72l-2138 1250c-70 50 -70 110 0 140z" />
    <glyph glyph-name="58" unicode="&#xe03a;" 
d="M3200 8800h1100l-2666 -2000h11166v-800h-11166l2666 -2000h-1100l-3200 2400z" />
    <glyph glyph-name="59" unicode="&#xe03b;" 
d="M4000 9400h1200l-3466 -2600h11066v-800h-11066l3466 -2600h-1200l-4000 3000z" />
    <glyph glyph-name="60" unicode="&#xe03c;" 
d="M2400 9600h1000l-2100 -2800h11500v-800h-11500l2100 -2800h-1000l-2400 3200z" />
    <glyph glyph-name="61" unicode="&#xe03d;" 
d="M3000 9400h1100l-2600 -2600h11300v-800h-11300l2600 -2600h-1100l-3000 3000z" />
    <glyph glyph-name="62" unicode="&#xe03e;" 
d="M2000 9000h1000l-1694 -2200h11494v-800h-11494l1694 -2200h-1000l-2000 2600z" />
    <glyph glyph-name="63" unicode="&#xe03f;" 
d="M2400 8800h1000l-2000 -2000h11400v-800h-11400l2000 -2000h-1000l-2400 2400z" />
    <glyph glyph-name="64" unicode="&#xe040;" 
d="M3036 10650c51 -2 84 -40 84 -100v-850h9600v-7600h-800v6800h-8800v-850c0 -80 -60 -121 -140 -91l-2928 1281c-70 30 -71 89 9 119l2919 1282c20 8 39 10 56 9z" />
    <glyph glyph-name="65" unicode="&#xe041;" 
d="M3379 10650c63 24 119 12 72 -81l-497 -869h9765v-7600h-800v6800h-8965l497 -869c40 -70 8 -111 -72 -81l-2444 950h-16v6l-859 335c-80 40 -80 79 0 109l859 338v12h35z" />
    <glyph glyph-name="66" unicode="&#xe042;" 
d="M2190 10631c62 35 131 14 131 -71v-860h10400v-7600h-800v6800h-9600v-840c0 -80 -61 -119 -131 -69l-2138 1250c-70 30 -70 90 0 140z" />
    <glyph glyph-name="67" unicode="&#xe043;" 
d="M2400 11200h1000l-2000 -2000h11400v-7600h-800v6800h-10600l2000 -2000h-1000l-2400 2400z" />
    <glyph glyph-name="68" unicode="&#xe044;" 
d="M9684 10650c17 1 36 -1 56 -9l2919 -1281c80 -30 80 -89 10 -119l-2928 -1282c-80 -30 -141 11 -141 91v850h-8800v-6800h-800v7600h9600v850c0 60 33 98 84 100z" />
    <glyph glyph-name="69" unicode="&#xe045;" 
d="M9269 10569c-47 93 9 105 72 81l2425 -950h34v-13l859 -337c80 -30 80 -70 0 -110l-859 -334v-6h-16l-2443 -950c-80 -30 -112 11 -72 81l497 869h-8966v-6800h-800v7600h9766z" />
    <glyph glyph-name="70" unicode="&#xe046;" 
d="M10459 10647c21 4 46 -1 72 -16l2138 -1250c70 -50 70 -110 0 -140l-2138 -1250c-70 -50 -131 -12 -131 68v841h-9600v-6800h-800v7600h10400v859c0 50 24 82 59 88z" />
    <glyph glyph-name="71" unicode="&#xe047;" 
d="M9400 11200h1000l2400 -2400l-2400 -2400h-1000l2000 2000h-10600v-6800h-800v7600h11400z" />
    <glyph glyph-name="72" unicode="&#xe048;" horiz-adv-x="8600" 
d="M0 12700h7600v-9600h850c80 0 121 -60 91 -140l-1281 -2919c-30 -80 -89 -80 -119 -10l-1282 2928c-30 80 11 141 91 141h850v8800h-6800v800z" />
    <glyph glyph-name="73" unicode="&#xe049;" horiz-adv-x="8600" 
d="M0 12700h7600v-9766l869 497c80 40 111 8 81 -72l-950 -2425v-34h-12l-338 -859c-30 -80 -69 -80 -109 0l-335 859h-6v16l-950 2443c-30 80 11 112 81 72l869 -497v8966h-6800v800z" />
    <glyph glyph-name="74" unicode="&#xe04a;" horiz-adv-x="8600" 
d="M0 12700h7600v-10400h859c80 0 112 -61 72 -131l-1250 -2138c-50 -70 -110 -70 -140 0l-1250 2138c-50 70 -11 131 69 131h840v9600h-6800v800z" />
    <glyph glyph-name="75" unicode="&#xe04b;" horiz-adv-x="9600" 
d="M0 12800h7600v-11400l2000 2000v-1000l-2400 -2400l-2400 2400v1000l2000 -2000v10600h-6800v800z" />
    <glyph glyph-name="76" unicode="&#xe04c;" horiz-adv-x="8600" 
d="M7141 12669c33 76 89 68 118 -9l1282 -2919c30 -80 -11 -141 -91 -141h-850v-9600h-7600v800h6800v8800h-850c-80 0 -121 61 -91 141z" />
    <glyph glyph-name="77" unicode="&#xe04d;" horiz-adv-x="8600" 
d="M7200 12719c19 0 35 -20 50 -60l338 -859h12v-34l950 -2426c30 -80 -1 -111 -81 -71l-869 497v-9766h-7600v800h6800v8966l-869 -497c-70 -40 -111 -9 -81 71l950 2444v16h6l335 859c20 40 40 60 59 60z" />
    <glyph glyph-name="78" unicode="&#xe04e;" horiz-adv-x="8600" 
d="M7203 12722c25 0 53 -18 78 -53l1250 -2138c40 -70 8 -131 -72 -131h-859v-10400h-7600v800h6800v9600h-841c-80 0 -118 61 -68 131l1250 2138c15 35 37 53 62 53z" />
    <glyph glyph-name="79" unicode="&#xe04f;" horiz-adv-x="9600" 
d="M7200 12800l2400 -2400v-1000l-2000 2000v-11400h-7600v800h6800v10600l-2000 -2000v1000z" />
    <glyph glyph-name="80" unicode="&#xe050;" horiz-adv-x="8600" 
d="M950 12700h1h7600v-800h-6800v-8800h850c80 0 120 -61 90 -141l-1281 -2928c-30 -70 -89 -70 -119 10l-1281 2918c-30 80 10 141 90 141h850v9600z" />
    <glyph glyph-name="81" unicode="&#xe051;" horiz-adv-x="8600" 
d="M961 12700h7600v-800h-6800v-8966l869 497c70 40 111 8 81 -72l-950 -2443v-16h-6l-334 -859c-40 -80 -80 -80 -110 0l-337 859h-13v34l-950 2425c-30 80 2 112 82 72l868 -497v9766z" />
    <glyph glyph-name="82" unicode="&#xe052;" horiz-adv-x="8600" 
d="M948 12700h7600v-800h-6800v-9600h841c80 0 119 -61 69 -131l-1250 -2138c-30 -70 -91 -70 -141 0l-1250 2138c-40 70 -8 131 72 131h860z" />
    <glyph glyph-name="83" unicode="&#xe053;" horiz-adv-x="9600" 
d="M2000 12800h7600v-800h-6800v-10600l2000 2000v-1000l-2400 -2400l-2400 2400v1000l2000 -2000v11400z" />
    <glyph glyph-name="84" unicode="&#xe054;" horiz-adv-x="8600" 
d="M1291 12659c29 77 86 86 119 10l1281 -2928c30 -80 -11 -141 -91 -141h-850v-8800h6800v-800h-7600v9600h-850c-80 0 -120 61 -90 141z" />
    <glyph glyph-name="85" unicode="&#xe055;" horiz-adv-x="8600" 
d="M1361 12719c19 0 40 -20 60 -60l334 -859h6v-16l950 -2444c30 -80 -11 -111 -81 -71l-869 497v-8966h6800v-800h-7600v9766l-868 -497c-80 -40 -112 -9 -82 71l950 2426v34h13l337 859c15 40 31 60 50 60z" />
    <glyph glyph-name="86" unicode="&#xe056;" horiz-adv-x="8600" 
d="M1345 12722c25 0 48 -18 63 -53l1250 -2138c50 -70 11 -131 -69 -131h-840v-9600h6800v-800h-7600v10400h-860c-80 0 -112 61 -72 131l1250 2138c25 35 53 53 78 53z" />
    <glyph glyph-name="87" unicode="&#xe057;" horiz-adv-x="9600" 
d="M2400 12800l2400 -2400v-1000l-2000 2000v-10600h6800v-800h-7600v11400l-2000 -2000v1000z" />
    <glyph glyph-name="88" unicode="&#xe058;" 
d="M4608 10750c65 13 112 -21 112 -100v-1250h8000v-7400h-1600v5800h-6400v-1250c0 -80 -60 -121 -140 -91l-4528 2081c-70 30 -71 89 9 119l4519 2082z" />
    <glyph glyph-name="89" unicode="&#xe059;" 
d="M4780 10741c67 25 112 4 90 -82l-459 -1259h8309v-7400h-1600v5800h-6709l459 -1260c30 -80 -10 -111 -90 -81l-3047 1341h-13v6l-1668 734c-70 30 -71 89 9 119l1659 732v9h19z" />
    <glyph glyph-name="90" unicode="&#xe05a;" 
d="M3390 10719c60 35 131 21 131 -69v-1250h9200v-7400h-1600v5800h-7600v-1250c0 -80 -61 -109 -131 -69l-3338 2038c-70 40 -70 122 0 162z" />
    <glyph glyph-name="91" unicode="&#xe05b;" 
d="M2624 11000h1700c30 0 30 -21 10 -41l-1760 -1759h10200v-7400h-1600v5800h-8606l1766 -1759c20 -20 10 -41 -10 -41h-1700c-30 0 -70 21 -90 41l-2519 2518c-20 20 -20 52 0 72l2519 2528c20 20 60 41 90 41z" />
    <glyph glyph-name="92" unicode="&#xe05c;" 
d="M8059 10750c22 6 51 2 81 -9l4519 -2081c80 -30 80 -89 10 -119l-4528 -2082c-80 -30 -141 11 -141 91v1250h-6400v-5800h-1600v7400h8000v1250c0 56 22 91 59 100z" />
    <glyph glyph-name="93" unicode="&#xe05d;" 
d="M7850 10659c-22 87 18 109 91 82l3040 -1341h19v-9l1659 -732c80 -30 80 -88 10 -118l-1669 -735v-6h-12l-3047 -1341c-80 -30 -121 2 -91 82l459 1259h-6709v-5800h-1600v7400h8309z" />
    <glyph glyph-name="94" unicode="&#xe05e;" 
d="M9200 10650c0 87 66 106 131 69l3338 -2038c70 -40 70 -122 0 -162l-3338 -2038c-70 -40 -131 -11 -131 69v1250h-7600v-5800h-1600v7400h9200v1250z" />
    <glyph glyph-name="95" unicode="&#xe05f;" 
d="M8450 11000h1700c30 0 71 -21 91 -41l2519 -2528c20 -20 20 -52 0 -72l-2519 -2518c-20 -20 -61 -41 -91 -41h-1700c-20 0 -29 21 -9 41l1765 1759h-8606v-5800h-1600v7400h10200l-1759 1759c-20 20 -21 41 9 41z" />
    <glyph glyph-name="96" unicode="&#xe060;" horiz-adv-x="8800" 
d="M0 12700h7400v-8000h1250c90 0 121 -60 91 -140l-2081 -4519c-30 -80 -89 -80 -119 -10l-2082 4528c-30 80 11 141 91 141h1250v6400h-5800v1600z" />
    <glyph glyph-name="97" unicode="&#xe061;" horiz-adv-x="8800" 
d="M0 12700h7400v-8309l1259 459c80 20 112 -11 82 -91l-1341 -3040v-19h-9l-732 -1659c-30 -80 -88 -80 -118 -10l-735 1669h-6v12l-1341 3047c-30 80 2 121 82 91l1259 -459v6709h-5800v1600z" />
    <glyph glyph-name="98" unicode="&#xe062;" horiz-adv-x="8800" 
d="M0 12700h7400v-9200h1250c80 0 109 -61 69 -131l-2038 -3338c-40 -70 -122 -70 -162 0l-2038 3338c-40 70 -11 131 69 131h1250v7600h-5800v1600z" />
    <glyph glyph-name="99" unicode="&#xe063;" horiz-adv-x="9200" 
d="M0 12700h7400v-10200l1759 1759c20 20 41 21 41 -9v-1700c0 -30 -21 -71 -41 -91l-2528 -2519c-20 -20 -52 -20 -72 0l-2518 2519c-20 20 -41 61 -41 91v1700c0 20 21 29 41 9l1759 -1765v8606h-5800v1600z" />
    <glyph glyph-name="100" unicode="&#xe064;" horiz-adv-x="8800" 
d="M6541 12669c33 76 89 68 118 -9l2082 -4519c30 -80 -1 -141 -91 -141h-1250v-8000h-7400v1600h5800v6400h-1250c-80 0 -121 61 -91 141z" />
    <glyph glyph-name="101" unicode="&#xe065;" horiz-adv-x="8800" 
d="M6541 12669c33 76 89 67 118 -10l732 -1659h9v-19l1341 -3040c30 -80 -2 -111 -82 -91l-1259 459v-8309h-7400v1600h5800v6709l-1259 -459c-80 -30 -112 11 -82 91l1341 3047v12h6z" />
    <glyph glyph-name="102" unicode="&#xe066;" horiz-adv-x="8800" 
d="M6600 12722c30 0 61 -18 81 -53l2038 -3338c40 -70 11 -131 -69 -131h-1250v-9200h-7400v1600h5800v7600h-1250c-80 0 -109 61 -69 131l2038 3338c20 35 51 53 81 53z" />
    <glyph glyph-name="103" unicode="&#xe067;" horiz-adv-x="9200" 
d="M6594 12775c12 0 27 -6 37 -16l2528 -2519c20 -20 41 -60 41 -90v-1700c0 -30 -21 -30 -41 -10l-1759 1760v-10200h-7400v1600h5800v8606l-1759 -1765c-20 -20 -41 -11 -41 9v1700c0 30 21 71 41 91l2518 2518c10 10 23 16 35 16z" />
    <glyph glyph-name="104" unicode="&#xe068;" horiz-adv-x="8800" 
d="M1352 12700h7400v-1600h-5800v-6400h1250c80 0 121 -61 91 -141l-2082 -4528c-30 -70 -89 -70 -119 10l-2081 4518c-30 80 1 141 91 141h1250v8000z" />
    <glyph glyph-name="105" unicode="&#xe069;" horiz-adv-x="8800" 
d="M1352 12700h7400v-1600h-5800v-6709l1259 459c80 30 112 -11 82 -91l-1341 -3047v-12h-6l-735 -1669c-30 -70 -89 -70 -119 10l-731 1659h-9v19l-1341 3040c-30 80 1 111 81 91l1260 -459v8309z" />
    <glyph glyph-name="106" unicode="&#xe06a;" horiz-adv-x="8800" 
d="M1337 12700h7400v-1600h-5800v-7600h1250c80 0 108 -61 68 -131l-2037 -3338c-40 -70 -123 -70 -163 0l-2037 3338c-40 70 -11 131 69 131h1250v9200z" />
    <glyph glyph-name="107" unicode="&#xe06b;" horiz-adv-x="9200" 
d="M1800 12700h7400v-1600h-5800v-8606l1759 1765c20 20 41 11 41 -9v-1700c0 -30 -21 -71 -41 -91l-2518 -2518c-20 -20 -52 -20 -72 0l-2528 2518c-20 20 -41 61 -41 91v1700c0 30 21 29 41 9l1759 -1759v10200z" />
    <glyph glyph-name="108" unicode="&#xe06c;" horiz-adv-x="8800" 
d="M2092 12659c29 77 86 86 119 10l2081 -4528c30 -80 -10 -141 -90 -141h-1250v-6400h5800v-1600h-7400v8000h-1250c-90 0 -121 61 -91 141z" />
    <glyph glyph-name="109" unicode="&#xe06d;" horiz-adv-x="8800" 
d="M2093 12659c29 77 85 86 118 10l735 -1669h6v-12l1341 -3047c30 -80 -2 -121 -82 -91l-1259 459v-6709h5800v-1600h-7400v8309l-1259 -459c-80 -20 -112 11 -82 91l1341 3040v19h9z" />
    <glyph glyph-name="110" unicode="&#xe06e;" horiz-adv-x="8800" 
d="M2137 12722c30 0 61 -18 81 -53l2038 -3338c40 -70 11 -131 -69 -131h-1250v-7600h5800v-1600h-7400v9200h-1250c-80 0 -109 61 -69 131l2037 3338c20 35 52 53 82 53z" />
    <glyph glyph-name="111" unicode="&#xe06f;" horiz-adv-x="9200" 
d="M2606 12775c12 0 25 -5 35 -15l2518 -2519c20 -20 41 -61 41 -91v-1700c0 -20 -21 -29 -41 -9l-1759 1765v-8606h5800v-1600h-7400v10200l-1759 -1759c-20 -20 -41 -21 -41 9v1700c0 30 21 71 41 91l2528 2518c10 10 25 16 37 16z" />
    <glyph glyph-name="112" unicode="&#xe070;" 
d="M11120 4900v5800h1600v-7400h-8000v-1250c0 -90 -60 -121 -140 -91l-4519 2081c-80 30 -79 89 -9 119l4528 2082c80 30 140 -11 140 -91v-1250h6400z" />
    <glyph glyph-name="113" unicode="&#xe071;" 
d="M11120 10700h1600v-7400h-8309l459 -1259c20 -80 -10 -112 -90 -82l-3041 1341h-19v9l-1659 732c-80 30 -79 88 -9 118l1668 735v6h13l3047 1341c80 30 120 -2 90 -82l-459 -1259h6709v5800z" />
    <glyph glyph-name="114" unicode="&#xe072;" 
d="M11121 10700h1600v-7400h-9200v-1250c0 -80 -61 -109 -131 -69l-3338 2038c-70 40 -70 122 0 162l3338 2038c70 40 131 11 131 -69v-1250h7600v5800z" />
    <glyph glyph-name="115" unicode="&#xe073;" 
d="M11174 11000h1600v-7400h-10200l1760 -1759c20 -20 20 -41 -10 -41h-1700c-30 0 -70 21 -90 41l-2519 2528c-20 20 -20 52 0 72l2519 2518c20 20 60 41 90 41h1700c20 0 30 -21 10 -41l-1766 -1759h8606v5800z" />
    <glyph glyph-name="116" unicode="&#xe074;" 
d="M0 10700h1600v-5800h6400v1250c0 80 61 121 141 91l4528 -2081c70 -30 70 -89 -10 -119l-4518 -2082c-80 -30 -141 1 -141 91v1250h-8000v7400z" />
    <glyph glyph-name="117" unicode="&#xe075;" 
d="M0 10700h1600v-5800h6709l-459 1259c-30 80 11 112 91 82l3047 -1341h12v-6l1669 -735c70 -30 70 -88 -10 -118l-1659 -732v-9h-19l-3040 -1341c-80 -30 -111 2 -91 82l459 1259h-8309v7400z" />
    <glyph glyph-name="118" unicode="&#xe076;" 
d="M0 10700h1600v-5800h7600v1250c0 80 61 109 131 69l3338 -2038c70 -40 70 -122 0 -162l-3338 -2038c-70 -40 -131 -11 -131 69v1250h-9200v7400z" />
    <glyph glyph-name="119" unicode="&#xe077;" 
d="M0 11000h1600v-5800h8606l-1765 1759c-20 20 -11 41 9 41h1700c30 0 71 -21 91 -41l2519 -2518c20 -20 20 -52 0 -72l-2519 -2528c-20 -20 -61 -41 -91 -41h-1700c-30 0 -29 21 -9 41l1759 1759h-10200v7400z" />
    <glyph glyph-name="120" unicode="&#xe078;" 
d="M11920 3800v6800h800v-7600h-9600v-850c0 -80 -60 -121 -140 -91l-2919 1281c-80 30 -79 89 -9 119l2928 1282c80 30 140 -11 140 -91v-850h8800z" />
    <glyph glyph-name="121" unicode="&#xe079;" 
d="M11919 10600h800v-7600h-9765l497 -869c40 -80 8 -111 -72 -81l-2425 950h-35v12l-859 338c-80 30 -80 69 0 109l859 335v6h16l2444 950c80 30 112 -11 72 -81l-497 -869h8965v6800z" />
    <glyph glyph-name="122" unicode="&#xe07a;" 
d="M11921 10600h800v-7600h-10400v-859c0 -80 -61 -112 -131 -72l-2138 1250c-70 50 -70 110 0 140l2138 1250c70 50 131 12 131 -68v-841h9600v6800z" />
    <glyph glyph-name="123" unicode="&#xe07b;" 
d="M12000 11200h800v-7600h-11400l2000 -2000h-1000l-2400 2400l2400 2400h1000l-2000 -2000h10600v6800z" />
    <glyph glyph-name="124" unicode="&#xe07c;" 
d="M0 10600h800v-6800h8800v850c0 80 61 121 141 91l2928 -1281c70 -30 70 -89 -10 -119l-2918 -1282c-80 -30 -141 11 -141 91v850h-9600v7600z" />
    <glyph glyph-name="125" unicode="&#xe07d;" 
d="M0 10600h800v-6800h8966l-497 869c-40 70 -8 111 72 81l2443 -950h16v-6l859 -335c80 -40 80 -79 0 -109l-859 -338v-12h-34l-2425 -950c-80 -30 -112 1 -72 81l497 869h-9766v7600z" />
    <glyph glyph-name="126" unicode="&#xe07e;" 
d="M0 10600h800v-6800h9600v840c0 80 61 119 131 69l2138 -1250c70 -30 70 -90 0 -140l-2138 -1250c-70 -40 -131 -8 -131 72v859h-10400v7600z" />
    <glyph glyph-name="127" unicode="&#xe07f;" 
d="M0 11200h800v-6800h10600l-2000 2000h1000l2400 -2400l-2400 -2400h-1000l2000 2000h-11400v7600z" />
    <glyph glyph-name="128" unicode="&#xe080;" 
d="M9684 7750c17 1 36 -1 56 -9l2919 -1281c80 -30 80 -89 10 -119l-2928 -1282c-80 -30 -141 11 -141 91v850h-9600v800h9600v850c0 60 33 98 84 100z" />
    <glyph glyph-name="129" unicode="&#xe081;" 
d="M9269 7569c-47 93 9 105 72 81l2425 -950h34v-13l859 -337c80 -30 80 -70 0 -110l-859 -334v-6h-16l-2443 -950c-80 -30 -112 11 -72 81l497 869h-9766v800h9766z" />
    <glyph glyph-name="130" unicode="&#xe082;" 
d="M8284 8350c17 1 37 -1 57 -9l4318 -1881c80 -30 80 -89 0 -119l-4318 -1882c-80 -30 -141 11 -141 91v1450h-8200v800h8200v1450c0 60 33 98 84 100z" />
    <glyph glyph-name="131" unicode="&#xe083;" 
d="M7881 8169c-51 89 2 93 60 71c1573 -627 3143 -1257 4719 -1881c80 -40 80 -79 0 -109l-860 -344v-6h-16l-3843 -1541c-70 -30 -100 2 -60 72l888 1469h-8769v800h8769z" />
    <glyph glyph-name="132" unicode="&#xe084;" 
d="M11000 8650c0 89 45 95 91 31l1618 -2162c50 -70 50 -168 0 -238l-1618 -2162c-50 -70 -91 -49 -91 31v1850h-11000v800h11000v1850z" />
    <glyph glyph-name="133" unicode="&#xe085;" 
d="M9400 8250c0 87 66 106 131 69l3138 -1838c70 -50 70 -110 0 -150l-3138 -1850c-70 -50 -131 -11 -131 69v1450h-9400v800h9400v1450z" />
    <glyph glyph-name="134" unicode="&#xe086;" 
d="M11400 8050c0 89 45 95 91 31l1218 -1562c50 -70 50 -168 0 -238l-1218 -1562c-50 -70 -91 -49 -91 31v1250h-11400v800h11400v1250z" />
    <glyph glyph-name="135" unicode="&#xe087;" 
d="M10459 7647c21 4 46 -1 72 -16l2138 -1250c70 -50 70 -110 0 -140l-2138 -1250c-70 -50 -131 -12 -131 68v841h-10400v800h10400v859c0 50 24 82 59 88z" />
    <glyph glyph-name="136" unicode="&#xe088;" 
d="M8500 8800h1100l3200 -2400l-3200 -2400h-1100l2666 2000h-11166v800h11166z" />
    <glyph glyph-name="137" unicode="&#xe089;" 
d="M7600 9400h1200l4000 -3000l-4000 -3000h-1200l3466 2600h-11066v800h11066z" />
    <glyph glyph-name="138" unicode="&#xe08a;" 
d="M9400 9600h1000l2400 -3200l-2400 -3200h-1000l2100 2800h-11500v800h11500z" />
    <glyph glyph-name="139" unicode="&#xe08b;" 
d="M8700 9400h1100l3000 -3000l-3000 -3000h-1100l2600 2600h-11300v800h11300z" />
    <glyph glyph-name="140" unicode="&#xe08c;" 
d="M9800 9000h1000l2000 -2600l-2000 -2600h-1000l1694 2200h-11494v800h11494z" />
    <glyph glyph-name="141" unicode="&#xe08d;" 
d="M9400 8800h1000l2400 -2400l-2400 -2400h-1000l2000 2000h-11400v800h11400z" />
    <glyph glyph-name="142" unicode="&#xe08e;" horiz-adv-x="4400" 
d="M1350 12700h1h1600v-8000h1250c90 0 120 -60 90 -140l-2081 -4519c-30 -80 -89 -80 -119 -10l-2081 4528c-30 80 10 141 90 141h1250v8000z" />
    <glyph glyph-name="143" unicode="&#xe08f;" horiz-adv-x="4400" 
d="M1352 12700h1600v-8309l1259 459c80 20 112 -11 82 -91l-1341 -3040v-19h-9l-732 -1659c-30 -80 -88 -80 -118 -10l-735 1669h-6v12l-1341 3047c-30 80 2 121 82 91l1259 -459v8309z" />
    <glyph glyph-name="144" unicode="&#xe090;" horiz-adv-x="5600" 
d="M1950 12700h1h1600v-6800h1850c90 0 130 -60 90 -140l-2681 -5719c-30 -80 -88 -80 -128 -10l-2672 5728c-30 80 10 141 90 141h1850v6800z" />
    <glyph glyph-name="145" unicode="&#xe091;" horiz-adv-x="5500" 
d="M1947 12700h1600v-6972l1859 531c80 20 111 -20 81 -100l-1940 -4428v-31h-13l-728 -1659c-30 -80 -89 -80 -109 -10l-731 1669h-19v47l-1932 4412c-40 80 2 120 82 100l1850 -531v6972z" />
    <glyph glyph-name="146" unicode="&#xe092;" horiz-adv-x="6800" 
d="M2600 12800h1600v-10000h2600l-3400 -2800l-3400 2800h2600v10000z" />
    <glyph glyph-name="147" unicode="&#xe093;" horiz-adv-x="5500" 
d="M1941 12700h1600v-8200h1850c80 0 109 -61 69 -131l-2638 -4338c-50 -70 -112 -70 -162 0l-2638 4338c-50 70 -11 131 69 131h1850v8200z" />
    <glyph glyph-name="148" unicode="&#xe094;" horiz-adv-x="4700" 
d="M1523 12700h1600v-10800h1450c80 0 92 -50 32 -100l-2163 -1800c-70 -60 -167 -60 -237 0l-2163 1800c-70 60 -48 100 32 100h1450z" />
    <glyph glyph-name="149" unicode="&#xe095;" horiz-adv-x="4300" 
d="M1337 12700h1600v-9200h1250c80 0 108 -61 68 -131l-2037 -3338c-40 -70 -123 -70 -163 0l-2037 3338c-40 70 -11 131 69 131h1250v9200z" />
    <glyph glyph-name="150" unicode="&#xe096;" horiz-adv-x="9600" 
d="M8443 11091l1132 -1132l-5657 -5656l885 -884c64 -64 43 -128 -35 -163l-4668 -1725c-78 -35 -119 7 -91 78l1731 4675c35 78 106 92 163 35l884 -885z" />
    <glyph glyph-name="151" unicode="&#xe097;" horiz-adv-x="9600" 
d="M8443 11091l1132 -1132l-5875 -5875l1215 -565c71 -42 72 -87 -6 -122l-3100 -1203l-13 -13l-6 7l-1690 -657c-78 -35 -119 7 -91 78l659 1700l-3 3l10 10l1206 3103c35 78 87 84 122 6l565 -1215z" />
    <glyph glyph-name="152" unicode="&#xe098;" horiz-adv-x="9600" 
d="M8449 11091l1131 -1132l-4809 -4809l1309 -1306c64 -64 51 -135 -34 -163l-5941 -2150c-78 -35 -121 7 -100 85l2166 5940c35 78 105 92 162 35l1307 -1310z" />
    <glyph glyph-name="153" unicode="&#xe099;" horiz-adv-x="9600" 
d="M8441 11091l1131 -1132l-4931 -4931l1694 -937c71 -42 62 -94 -16 -129l-4503 -1759l-22 -22l-9 10l-1688 -660c-78 -35 -119 8 -84 72l665 1694l-15 15l31 32l1759 4487c28 85 83 87 125 16l935 -1685z" />
    <glyph glyph-name="154" unicode="&#xe09a;" horiz-adv-x="10100" 
d="M8909 11391l1132 -1132l-7072 -7072l1840 -1837l-4384 425l-425 4384l1838 -1840z" />
    <glyph glyph-name="155" unicode="&#xe09b;" horiz-adv-x="9600" 
d="M8453 11191l1131 -1132l-5797 -5797l1306 -1309c57 -56 38 -120 -40 -141l-4938 -1203c-85 -14 -126 28 -112 113l1203 4937c14 85 83 98 140 41l1310 -1306z" />
    <glyph glyph-name="156" unicode="&#xe09c;" horiz-adv-x="9900" 
d="M8754 11291l1131 -1132l-7634 -7634l1025 -1028c57 -56 28 -98 -50 -91l-2800 253c-92 7 -165 80 -172 172l-253 2800c-7 92 33 107 90 50l1028 -1025z" />
    <glyph glyph-name="157" unicode="&#xe09d;" horiz-adv-x="9600" 
d="M8455 11191l1131 -1131l-6503 -6504l881 -884c57 -57 37 -123 -41 -144l-3806 -919c-78 -21 -133 35 -112 113l918 3806c21 78 87 98 144 41l885 -881z" />
    <glyph glyph-name="158" unicode="&#xe09e;" horiz-adv-x="9700" 
d="M8484 11191l1132 -1132l-6897 -6897l2937 391l-1415 -1412l-4241 -566l566 4241l1412 1415l-390 -2937z" />
    <glyph glyph-name="159" unicode="&#xe09f;" horiz-adv-x="9700" 
d="M8484 11191l1132 -1132l-6872 -6872l4328 650l-1416 -1415l-5656 -847l847 5656l1415 1416l-650 -4328z" />
    <glyph glyph-name="160" unicode="&#xe0a0;" horiz-adv-x="10500" 
d="M9334 11591l1132 -1132l-7422 -7421l3462 -782l-1131 -1131l-4384 991l-991 4384l1131 1131l782 -3462z" />
    <glyph glyph-name="161" unicode="&#xe0a1;" horiz-adv-x="9700" 
d="M8484 11191l1132 -1132l-7213 -7212h3678l-1272 -1272h-4809v4809l1272 1272v-3678z" />
    <glyph glyph-name="162" unicode="&#xe0a2;" horiz-adv-x="10200" 
d="M9050 11491l1131 -1132l-7415 -7415l2325 -503l-1132 -1132l-3253 707l-706 3253l1131 1131l503 -2325z" />
    <glyph glyph-name="163" unicode="&#xe0a3;" horiz-adv-x="9700" 
d="M8484 11191l1132 -1132l-7207 -7206h2491c28 0 43 -13 22 -34l-1203 -1203c-21 -21 -63 -35 -91 -35h-3578c-28 0 -50 22 -50 50v3563c0 28 13 73 34 94l1204 1200c14 14 34 9 34 -19v-2491z" />
    <glyph glyph-name="164" unicode="&#xe0a4;" horiz-adv-x="5200" 
d="M1800 12800h1600v-9753l1800 2353v-2000l-2600 -3400l-2600 3400v2000l1800 -2353v9753z" />
    <glyph glyph-name="165" unicode="&#xe0a5;" horiz-adv-x="6800" 
d="M2600 12800h1600v-9719l2600 3519v-2000l-3400 -4600l-3400 4600v2000l2600 -3519v9719z" />
    <glyph glyph-name="166" unicode="&#xe0a6;" horiz-adv-x="7600" 
d="M3000 12700h1600v-10494l3000 1894v-1600l-3800 -2400l-3800 2400v1600l3000 -1894v10494z" />
    <glyph glyph-name="167" unicode="&#xe0a7;" horiz-adv-x="6800" 
d="M2600 12800h1600v-10200l2600 2600v-1800l-3400 -3400l-3400 3400v1800l2600 -2600v10200z" />
    <glyph glyph-name="168" unicode="&#xe0a8;" horiz-adv-x="5600" 
d="M2000 12700h1600v-10484l2000 1284v-1600l-2800 -1800l-2800 1800v1600l2000 -1284v10484z" />
    <glyph glyph-name="169" unicode="&#xe0a9;" horiz-adv-x="5200" 
d="M1800 12700h1600v-10191l1759 1760c20 20 41 20 41 -10v-1700c0 -30 -21 -70 -41 -90l-2528 -2528c-20 -20 -52 -20 -72 0l-2518 2518c-20 20 -41 61 -41 91v1700c0 20 21 29 41 9l1759 -1759v10200z" />
    <glyph glyph-name="170" unicode="&#xe0aa;" horiz-adv-x="9600" 
d="M0 9959l1131 1131l5657 -5656l884 885c64 64 127 43 162 -35l1725 -4669c35 -78 -7 -118 -78 -90l-4675 1731c-78 35 -91 106 -34 163l884 884z" />
    <glyph glyph-name="171" unicode="&#xe0ab;" horiz-adv-x="9600" 
d="M1131 11090l5875 -5874l566 1215c42 71 87 72 122 -6l1203 -3100l12 -13l-6 -6l656 -1691c35 -78 -7 -118 -78 -90l-1700 659l-3 -3l-9 9l-3103 1207c-78 35 -85 87 -7 122l1216 565l-5875 5875z" />
    <glyph glyph-name="172" unicode="&#xe0ac;" horiz-adv-x="9600" 
d="M0 9959l1131 1131l4810 -4809l1306 1309c64 64 134 51 162 -34l2150 -5940c35 -78 -6 -121 -84 -100l-5941 2165c-78 35 -91 106 -34 163l1309 1306z" />
    <glyph glyph-name="173" unicode="&#xe0ad;" horiz-adv-x="9600" 
d="M0 9959l1131 1131l4931 -4931l938 1694c42 71 93 62 128 -16l1760 -4503l21 -22l-9 -9l659 -1687c35 -78 -7 -120 -71 -85l-1694 666l-16 -16l-31 31l-4488 1760c-85 28 -86 83 -15 125l1684 934z" />
    <glyph glyph-name="174" unicode="&#xe0ae;" horiz-adv-x="10100" 
d="M1131 11391l7072 -7072l1838 1840l-425 -4384l-4385 -425l1841 1837l-7072 7072z" />
    <glyph glyph-name="175" unicode="&#xe0af;" horiz-adv-x="9600" 
d="M0 10059l1131 1131l5797 -5796l1310 1306c56 57 119 37 140 -41l1203 -4937c14 -85 -27 -127 -112 -113l-4938 1203c-85 14 -97 84 -40 141l1306 1309z" />
    <glyph glyph-name="176" unicode="&#xe0b0;" horiz-adv-x="9900" 
d="M1131 11291l7635 -7635l1028 1025c56 57 97 28 90 -50l-253 -2800c-7 -92 -80 -165 -172 -172l-2800 -253c-92 -7 -107 34 -50 91l1025 1028l-7634 7634z" />
    <glyph glyph-name="177" unicode="&#xe0b1;" horiz-adv-x="9600" 
d="M0 10059l1131 1131l6503 -6503l885 882c57 57 122 37 143 -41l919 -3806c21 -78 -34 -134 -112 -113l-3807 919c-78 21 -97 87 -40 144l881 884z" />
    <glyph glyph-name="178" unicode="&#xe0b2;" horiz-adv-x="9700" 
d="M0 10059l1131 1131l6897 -6896l-390 2937l1412 -1415l566 -4241l-4241 565l-1416 1413l2938 -391z" />
    <glyph glyph-name="179" unicode="&#xe0b3;" horiz-adv-x="9700" 
d="M1131 11191l6872 -6872l-650 4328l1416 -1416l847 -5656l-5657 847l-1415 1415l4328 -650l-6872 6872z" />
    <glyph glyph-name="180" unicode="&#xe0b4;" horiz-adv-x="10500" 
d="M0 10459l1131 1131l7422 -7421l781 3462l1132 -1131l-991 -4385l-4384 -990l-1132 1131l3463 781z" />
    <glyph glyph-name="181" unicode="&#xe0b5;" horiz-adv-x="9700" 
d="M1131 11191l7213 -7213v3678l1272 -1272v-4809h-4810l-1272 1272h3678l-7212 7212z" />
    <glyph glyph-name="182" unicode="&#xe0b6;" horiz-adv-x="10200" 
d="M1131 11491l7416 -7416l503 2325l1131 -1131l-706 -3253l-3253 -707l-1131 1132l2325 503l-7416 7415z" />
    <glyph glyph-name="183" unicode="&#xe0b7;" horiz-adv-x="9700" 
d="M0 10059l1131 1131l7207 -7206v2491c0 28 13 43 34 22l1203 -1203c21 -21 34 -63 34 -91v-3578c0 -28 -22 -50 -50 -50h-3562c-28 0 -73 13 -94 34l-1200 1203c-14 14 -9 35 19 35h2490z" />
    <glyph glyph-name="184" unicode="&#xe0b8;" 
d="M4636 8550c51 -2 84 -40 84 -100v-1250h8000v-1600h-8000v-1250c0 -90 -60 -121 -140 -91l-4519 2081c-80 30 -79 89 -9 119l4528 2082c20 8 39 10 56 9z" />
    <glyph glyph-name="185" unicode="&#xe0b9;" 
d="M4780 8541c68 26 123 5 90 -82l-459 -1259h8309v-1600h-8309l459 -1260c20 -80 -10 -111 -90 -81l-3041 1341h-19v9l-1659 731c-80 30 -79 89 -9 119l1668 735v6h13z" />
    <glyph glyph-name="186" unicode="&#xe0ba;" 
d="M5780 9141c76 28 140 -8 140 -91v-1850h6800v-1600h-6800v-1850c0 -90 -60 -131 -140 -91l-5719 2682c-80 30 -79 88 -9 128z" />
    <glyph glyph-name="187" unicode="&#xe0bb;" 
d="M6180 9131c67 33 123 12 100 -81l-532 -1850h6972v-1600h-6972l532 -1859c20 -80 -20 -112 -100 -82l-4428 1941h-32v12l-1659 728c-80 30 -79 90 -9 110l1668 731v19h47z" />
    <glyph glyph-name="188" unicode="&#xe0bc;" 
d="M2800 9800v-2600h10000v-1600h-10000v-2600l-2800 3400z" />
    <glyph glyph-name="189" unicode="&#xe0bd;" 
d="M4390 9019c59 42 131 22 131 -69v-1850h8200v-1600h-8200v-1850c0 -80 -61 -109 -131 -69l-4338 2638c-70 50 -70 112 0 162z" />
    <glyph glyph-name="190" unicode="&#xe0be;" 
d="M1845 8581c44 51 100 68 100 -31v-1450h10800v-1600h-10800v-1450c0 -80 -50 -91 -100 -31l-1800 2162c-60 70 -60 168 0 238z" />
    <glyph glyph-name="191" unicode="&#xe0bf;" 
d="M3390 8419c60 34 131 21 131 -69v-1250h9200v-1600h-9200v-1250c0 -80 -61 -109 -131 -69l-3338 2038c-70 40 -70 122 0 162z" />
    <glyph glyph-name="192" unicode="&#xe0c0;" 
d="M3400 9000h2000l-2353 -1800h9753v-1600h-9753l2353 -1800h-2000l-3400 2600z" />
    <glyph glyph-name="193" unicode="&#xe0c1;" 
d="M4600 9800h2000l-3519 -2600h9719v-1600h-9719l3519 -2600h-2000l-4600 3400z" />
    <glyph glyph-name="194" unicode="&#xe0c2;" horiz-adv-x="12600" 
d="M2400 10200h1600l-1894 -3000h10494v-1600h-10494l1894 -3000h-1600l-2400 3800z" />
    <glyph glyph-name="195" unicode="&#xe0c3;" 
d="M3400 9800h1800l-2600 -2600h10200v-1600h-10200l2600 -2600h-1800l-3400 3400z" />
    <glyph glyph-name="196" unicode="&#xe0c4;" horiz-adv-x="12600" 
d="M1800 9200h1600l-1284 -2000h10484v-1600h-10484l1284 -2000h-1600l-1800 2800z" />
    <glyph glyph-name="197" unicode="&#xe0c5;" 
d="M2624 9000h1700c20 0 30 -21 10 -41l-1760 -1759h10200v-1600h-10190l1759 -1759c20 -20 21 -41 -9 -41h-1700c-30 0 -71 21 -91 41l-2528 2528c-20 20 -20 52 0 72l2519 2518c20 20 60 41 90 41z" />
    <glyph glyph-name="198" unicode="&#xe0c6;" 
d="M8084 8550c17 0 36 -1 56 -9l4519 -2081c80 -30 80 -89 10 -119l-4528 -2082c-80 -30 -141 11 -141 91v1250h-8000v1600h8000v1250c0 68 33 100 84 100z" />
    <glyph glyph-name="199" unicode="&#xe0c7;" 
d="M7850 8359c-22 87 18 109 91 82l3040 -1341h19v-9l1659 -732c80 -30 80 -88 10 -118l-1669 -735v-6h-12l-3047 -1341c-80 -30 -121 2 -91 82l459 1259h-8309v1600h8309z" />
    <glyph glyph-name="200" unicode="&#xe0c8;" 
d="M6800 8950c0 96 66 128 140 91l5719 -2682c80 -30 80 -88 10 -128l-5728 -2672c-80 -30 -141 11 -141 91v1850h-6800v1600h6800v1850z" />
    <glyph glyph-name="201" unicode="&#xe0c9;" 
d="M6441 8959c-22 87 27 109 100 82l4428 -1941h31v-12l1659 -728c80 -30 80 -90 10 -110l-1669 -731v-19h-47l-4412 -1931c-80 -40 -120 1 -100 81l531 1850h-6972v1600h6972z" />
    <glyph glyph-name="202" unicode="&#xe0ca;" 
d="M10000 9800l2800 -3400l-2800 -3400v2600h-10000v1600h10000v2600z" />
    <glyph glyph-name="203" unicode="&#xe0cb;" 
d="M8200 9050c0 87 66 106 131 69l4338 -2638c70 -50 70 -112 0 -162l-4338 -2638c-70 -50 -131 -11 -131 69v1850h-8200v1600h8200v1850z" />
    <glyph glyph-name="204" unicode="&#xe0cc;" 
d="M10800 8650c0 88 55 85 100 31l1800 -2162c60 -70 60 -168 0 -238l-1800 -2162c-60 -70 -100 -49 -100 31v1450h-10800v1600h10800v1450z" />
    <glyph glyph-name="205" unicode="&#xe0cd;" 
d="M9200 8350c0 87 66 106 131 69l3338 -2038c70 -40 70 -122 0 -162l-3338 -2038c-70 -40 -131 -11 -131 69v1250h-9200v1600h9200v1250z" />
    <glyph glyph-name="206" unicode="&#xe0ce;" 
d="M7400 9000h2000l3400 -2600l-3400 -2600h-2000l2353 1800h-9753v1600h9753z" />
    <glyph glyph-name="207" unicode="&#xe0cf;" 
d="M6200 9800h2000l4600 -3400l-4600 -3400h-2000l3519 2600h-9719v1600h9719z" />
    <glyph glyph-name="208" unicode="&#xe0d0;" horiz-adv-x="12600" 
d="M8600 10200h1600l2400 -3800l-2400 -3800h-1600l1894 3000h-10494v1600h10494z" />
    <glyph glyph-name="209" unicode="&#xe0d1;" 
d="M7600 9800h1800l3400 -3400l-3400 -3400h-1800l2600 2600h-10200v1600h10200z" />
    <glyph glyph-name="210" unicode="&#xe0d2;" horiz-adv-x="12600" 
d="M9200 9200h1600l1800 -2800l-1800 -2800h-1600l1284 2000h-10484v1600h10484z" />
    <glyph glyph-name="211" unicode="&#xe0d3;" 
d="M8441 9000h1700c30 0 70 -21 90 -41l2528 -2528c20 -20 20 -52 0 -72l-2518 -2518c-20 -20 -61 -41 -91 -41h-1700c-20 0 -29 21 -9 41l1759 1759h-10200v1600h10191l-1760 1759c-20 20 -20 41 10 41z" />
    <glyph glyph-name="212" unicode="&#xe0d4;" horiz-adv-x="4400" 
d="M2092 12659c29 77 86 86 119 10l2081 -4528c30 -80 -10 -141 -90 -141h-1250v-8000h-1600v8000h-1250c-90 0 -121 61 -91 141z" />
    <glyph glyph-name="213" unicode="&#xe0d5;" horiz-adv-x="4400" 
d="M2093 12659c29 77 85 86 118 10l735 -1669h6v-12l1341 -3047c30 -80 -2 -121 -82 -91l-1259 459v-8309h-1600v8309l-1259 -459c-80 -20 -112 11 -82 91l1341 3040v19h9z" />
    <glyph glyph-name="214" unicode="&#xe0d6;" horiz-adv-x="5600" 
d="M2697 12659c30 81 87 82 128 10l2672 -5728c30 -80 -11 -141 -91 -141h-1850v-6800h-1600v6800h-1850c-90 0 -131 61 -91 141z" />
    <glyph glyph-name="215" unicode="&#xe0d7;" horiz-adv-x="5500" 
d="M2692 12659c27 72 87 91 110 10l731 -1669h19v-47l1931 -4412c40 -80 -1 -120 -81 -100l-1850 531v-6972h-1600v6972l-1859 -531c-80 -20 -112 20 -82 100l1941 4428v31h12z" />
    <glyph glyph-name="216" unicode="&#xe0d8;" horiz-adv-x="6800" 
d="M3400 12800l3400 -2800h-2600v-10000h-1600v10000h-2600z" />
    <glyph glyph-name="217" unicode="&#xe0d9;" horiz-adv-x="5500" 
d="M2737 12722c28 0 56 -18 81 -53l2638 -4338c50 -70 11 -131 -69 -131h-1850v-8200h-1600v8200h-1850c-80 0 -109 61 -69 131l2637 4338c25 35 54 53 82 53z" />
    <glyph glyph-name="218" unicode="&#xe0da;" horiz-adv-x="4700" 
d="M2319 12744c43 0 84 -14 119 -44l2163 -1800c70 -60 48 -100 -32 -100h-1450v-10800h-1600v10800h-1450c-80 0 -91 50 -31 100l2163 1800c35 30 76 44 118 44z" />
    <glyph glyph-name="219" unicode="&#xe0db;" horiz-adv-x="4300" 
d="M2137 12722c30 0 61 -18 81 -53l2038 -3338c40 -70 11 -131 -69 -131h-1250v-9200h-1600v9200h-1250c-80 0 -109 61 -69 131l2037 3338c20 35 52 53 82 53z" />
    <glyph glyph-name="220" unicode="&#xe0dc;" horiz-adv-x="9600" 
d="M13 11084c-37 82 13 117 78 91l4675 -1731c78 -35 91 -106 34 -163l-884 -884l5656 -5656l-1131 -1132l-5657 5657l-884 -885c-64 -64 -127 -43 -162 35z" />
    <glyph glyph-name="221" unicode="&#xe0dd;" horiz-adv-x="9600" 
d="M44 11184c13 1 29 -2 47 -9l1700 -659l3 3l9 -10l3103 -1206c78 -35 85 -87 7 -122l-1216 -565l5875 -5875l-1131 -1132l-5875 5875l-566 -1215c-42 -71 -87 -72 -122 6l-1203 3100l-12 13l6 6l-656 1690c-26 58 -9 96 31 100z" />
    <glyph glyph-name="222" unicode="&#xe0de;" horiz-adv-x="9600" 
d="M12 11084c-35 76 6 76 35 104c14 2 31 1 50 -4l5941 -2165c78 -35 91 -106 34 -163l-1309 -1306l4809 -4809l-1131 -1132l-4810 4810l-1306 -1310c-64 -64 -135 -50 -163 35z" />
    <glyph glyph-name="223" unicode="&#xe0df;" horiz-adv-x="9600" 
d="M13 11084c-35 76 5 74 28 97c12 0 28 -3 44 -12l1694 -666l15 16l31 -31l4488 -1760c85 -28 87 -83 16 -125l-1685 -934l4928 -4928l-1131 -1132l-4931 4932l-938 -1694c-42 -71 -93 -63 -128 15l-1759 4504l-22 21l9 10z" />
    <glyph glyph-name="224" unicode="&#xe0e0;" horiz-adv-x="10100" 
d="M4809 11350l-1840 -1838l7072 -7071l-1132 -1132l-7071 7072l-1838 -1840l425 4384z" />
    <glyph glyph-name="225" unicode="&#xe0e1;" horiz-adv-x="9600" 
d="M87 11094c1661 -396 3310 -805 4966 -1206c85 -14 97 -84 40 -141l-1306 -1309l5797 -5797l-1131 -1132l-5797 5797l-1310 -1306c-56 -57 -119 -37 -140 41l-1203 4937c-12 74 19 116 84 116z" />
    <glyph glyph-name="226" unicode="&#xe0e2;" horiz-adv-x="9900" 
d="M3226 11294c92 7 107 -34 50 -91l-1025 -1028l7634 -7634l-1131 -1132l-7635 7635l-1028 -1025c-56 -57 -97 -28 -90 50l253 2800c7 92 80 165 172 172z" />
    <glyph glyph-name="227" unicode="&#xe0e3;" horiz-adv-x="9600" 
d="M5 10978c-21 78 25 82 59 116c16 4 34 2 53 -3l3807 -919c78 -21 97 -87 40 -144l-881 -884l6503 -6503l-1131 -1132l-6503 6503l-885 -881c-57 -57 -123 -37 -144 41z" />
    <glyph glyph-name="228" unicode="&#xe0e4;" horiz-adv-x="9700" 
d="M0 11125l4241 -565l1415 -1413l-2937 391l6897 -6897l-1132 -1132l-6896 6897l390 -2937l-1412 1415z" />
    <glyph glyph-name="229" unicode="&#xe0e5;" horiz-adv-x="9700" 
d="M0 11125l5656 -847l1416 -1416l-4328 650l6872 -6871l-1132 -1132l-6872 6872l650 -4328l-1415 1416z" />
    <glyph glyph-name="230" unicode="&#xe0e6;" horiz-adv-x="10500" 
d="M5375 11575l1131 -1131l-3462 -782l7422 -7421l-1132 -1132l-7421 7422l-782 -3462l-1131 1131l991 4384z" />
    <glyph glyph-name="231" unicode="&#xe0e7;" horiz-adv-x="9700" 
d="M0 11125h4809l1272 -1272h-3678l7213 -7212l-1132 -1132l-7212 7213v-3678l-1272 1272v4809z" />
    <glyph glyph-name="232" unicode="&#xe0e8;" horiz-adv-x="10200" 
d="M3959 11491l1132 -1132l-2325 -503l7415 -7415l-1131 -1132l-7416 7416l-503 -2325l-1131 1131l706 3253z" />
    <glyph glyph-name="233" unicode="&#xe0e9;" horiz-adv-x="9700" 
d="M50 11125h3563c28 0 72 -13 93 -34l1200 -1203c14 -14 10 -35 -18 -35h-2491l7213 -7212l-1132 -1132l-7206 7207v-2491c0 -28 -13 -43 -34 -22l-1204 1203c-21 21 -34 63 -34 91v3578c0 28 22 50 50 50z" />
    <glyph glyph-name="234" unicode="&#xe0ea;" horiz-adv-x="5200" 
d="M2600 12800l2600 -3400v-2000l-1800 2353v-9753h-1600v9753l-1800 -2353v2000z" />
    <glyph glyph-name="235" unicode="&#xe0eb;" horiz-adv-x="6800" 
d="M3400 12800l3400 -4600v-2000l-2600 3519v-9719h-1600v9719l-2600 -3519v2000z" />
    <glyph glyph-name="236" unicode="&#xe0ec;" horiz-adv-x="7600" 
d="M3800 12700l3800 -2400v-1600l-3000 1894v-10494h-1600v10494l-3000 -1894v1600z" />
    <glyph glyph-name="237" unicode="&#xe0ed;" horiz-adv-x="6800" 
d="M3400 12800l3400 -3400v-1800l-2600 2600v-10200h-1600v10200l-2600 -2600v1800z" />
    <glyph glyph-name="238" unicode="&#xe0ee;" horiz-adv-x="5600" 
d="M2800 12700l2800 -1800v-1600l-2000 1284v-10484h-1600v10484l-2000 -1284v1600z" />
    <glyph glyph-name="239" unicode="&#xe0ef;" horiz-adv-x="5200" 
d="M2606 12775c12 0 25 -5 35 -15l2518 -2519c20 -20 41 -61 41 -91v-1700c0 -20 -21 -29 -41 -9l-1759 1759v-10200h-1600v10191l-1759 -1760c-20 -20 -41 -20 -41 10v1700c0 30 21 70 41 90l2528 2528c10 10 25 16 37 16z" />
    <glyph glyph-name="240" unicode="&#xe0f0;" horiz-adv-x="9600" 
d="M9475 11169c13 6 44 18 50 12c43 0 62 -38 41 -91l-1732 -4674c-35 -78 -105 -92 -162 -35l-884 885l-5657 -5657l-1131 1131l5656 5657l-884 884c-64 64 -44 128 34 163z" />
    <glyph glyph-name="241" unicode="&#xe0f1;" horiz-adv-x="9600" 
d="M9475 11169c63 28 124 3 91 -78l-660 -1700l4 -3l-10 -10l-1206 -3103c-35 -78 -87 -84 -122 -6l-566 1215l-5875 -5875l-1131 1132l5875 5875l-1216 565c-71 42 -71 87 7 122l3100 1203l12 13l6 -7z" />
    <glyph glyph-name="242" unicode="&#xe0f2;" horiz-adv-x="9600" 
d="M9475 11169c13 6 44 18 50 12c44 -1 66 -39 50 -97l-2165 -5940c-35 -78 -106 -92 -163 -35l-1306 1310l-4810 -4810l-1131 1131l4809 4810l-1309 1306c-64 64 -51 135 34 163z" />
    <glyph glyph-name="243" unicode="&#xe0f3;" horiz-adv-x="9600" 
d="M9525 11181c43 0 61 -36 35 -84l-666 -1694l16 -16l-32 -31l-1759 -4488c-28 -85 -83 -86 -125 -15l-935 1684l-4928 -4928l-1131 1131l4931 4932l-1693 937c-71 42 -63 93 15 128l4503 1760l22 22l10 -10l1687 660c19 9 36 12 50 12z" />
    <glyph glyph-name="244" unicode="&#xe0f4;" horiz-adv-x="10100" 
d="M5231 11350l4385 -425l425 -4384l-1838 1840l-7072 -7072l-1131 1132l7072 7071z" />
    <glyph glyph-name="245" unicode="&#xe0f5;" horiz-adv-x="9600" 
d="M9497 11094c65 0 96 -42 84 -116l-1203 -4938c-14 -85 -83 -97 -140 -40l-1310 1306l-5797 -5797l-1131 1132l5797 5797l-1306 1309c-57 56 -38 120 40 141l4938 1203z" />
    <glyph glyph-name="246" unicode="&#xe0f6;" horiz-adv-x="9900" 
d="M6659 11294l2800 -253c92 -7 165 -80 172 -172l253 -2800c7 -92 -33 -107 -90 -50l-1028 1025l-7635 -7635l-1131 1132l7634 7634l-1025 1028c-57 56 -28 98 50 91z" />
    <glyph glyph-name="247" unicode="&#xe0f7;" horiz-adv-x="9600" 
d="M9497 11094c63 2 103 -48 84 -116l-918 -3806c-21 -78 -87 -98 -144 -41l-885 881l-6503 -6503l-1131 1131l6503 6504l-881 884c-57 57 -38 123 40 144l3807 919z" />
    <glyph glyph-name="248" unicode="&#xe0f8;" horiz-adv-x="9700" 
d="M9616 11125l-566 -4241l-1412 -1415l390 2937l-6897 -6897l-1131 1132l6897 6897l-2938 -391l1416 1412z" />
    <glyph glyph-name="249" unicode="&#xe0f9;" horiz-adv-x="9700" 
d="M9616 11125l-847 -5656l-1416 -1416l650 4328l-6872 -6872l-1131 1132l6872 6871l-4328 -650l1415 1416z" />
    <glyph glyph-name="250" unicode="&#xe0fa;" horiz-adv-x="10500" 
d="M5091 11575c1461 -330 2923 -661 4384 -991l991 -4384l-1132 -1131l-781 3462l-7422 -7422l-1131 1131l7422 7422l-3463 782z" />
    <glyph glyph-name="251" unicode="&#xe0fb;" horiz-adv-x="9700" 
d="M4806 11125h4810v-4809l-1272 -1272v3678l-7213 -7213l-1131 1132l7212 7212h-3678z" />
    <glyph glyph-name="252" unicode="&#xe0fc;" horiz-adv-x="10200" 
d="M6222 11491l3253 -707l706 -3253l-1131 -1131l-503 2325l-7416 -7416l-1131 1132l7416 7415l-2325 503z" />
    <glyph glyph-name="253" unicode="&#xe0fd;" horiz-adv-x="9700" 
d="M5988 11119h3578c28 0 50 -22 50 -50v-3563c0 -28 -14 -73 -35 -94l-1203 -1200c-14 -14 -34 -9 -34 19v2491l-7213 -7213l-1131 1131l7206 7207h-2490c-28 0 -43 13 -22 34l1203 1203c21 21 63 35 91 35z" />
    <glyph glyph-name="254" unicode="&#xe0fe;" horiz-adv-x="2800" 
d="M1291 12659c29 77 86 86 119 10l1281 -2928c30 -80 -11 -141 -91 -141h-850v-9600h-800v9600h-850c-80 0 -120 61 -90 141z" />
    <glyph glyph-name="255" unicode="&#xe0ff;" horiz-adv-x="2800" 
d="M1361 12719c19 0 40 -20 60 -60l334 -859h6v-16l950 -2444c30 -80 -11 -111 -81 -71l-869 497v-9766h-800v9766l-868 -497c-80 -40 -112 -9 -82 71l950 2426v34h13l337 859c15 40 31 60 50 60z" />
    <glyph glyph-name="256" unicode="&#xe100;" horiz-adv-x="4000" 
d="M1951 12719h-1c22 0 45 -20 60 -60l1881 -4319c30 -80 -11 -140 -91 -140h-1450v-8200h-800v8200h-1450c-80 0 -120 60 -90 140l1881 4319c15 40 38 60 60 60z" />
    <glyph glyph-name="257" unicode="&#xe101;" horiz-adv-x="4000" 
d="M1952 12719c19 0 35 -20 50 -60l344 -859h6v-16l1541 -3844c30 -70 -2 -99 -72 -59l-1469 888v-8769h-800v8769l-1469 -888c-70 -40 -102 -21 -72 59c627 1573 1257 3143 1881 4719c20 40 41 60 60 60z" />
    <glyph glyph-name="258" unicode="&#xe102;" horiz-adv-x="4700" 
d="M2324 12747c43 0 83 -13 118 -38l2163 -1618c70 -50 49 -91 -31 -91h-1850v-11000h-800v11000h-1850c-80 0 -102 41 -32 91l2163 1618c35 25 77 38 119 38z" />
    <glyph glyph-name="259" unicode="&#xe103;" horiz-adv-x="3900" 
d="M1937 12722c26 0 49 -18 69 -53l1850 -3138c50 -70 11 -131 -69 -131h-1450v-9400h-800v9400h-1450c-80 0 -109 61 -69 131l1837 3138c25 35 56 53 82 53z" />
    <glyph glyph-name="260" unicode="&#xe104;" horiz-adv-x="3500" 
d="M1724 12747c43 0 83 -13 118 -38l1563 -1218c70 -50 49 -91 -31 -91h-1250v-11400h-800v11400h-1250c-80 0 -102 41 -32 91l1563 1218c35 25 77 38 119 38z" />
    <glyph glyph-name="261" unicode="&#xe105;" horiz-adv-x="2700" 
d="M1345 12722c25 0 48 -18 63 -53l1250 -2138c50 -70 11 -131 -69 -131h-840v-10400h-800v10400h-860c-80 0 -112 61 -72 131l1250 2138c25 35 53 53 78 53z" />
    <glyph glyph-name="262" unicode="&#xe106;" horiz-adv-x="9300" 
d="M44 10984c13 1 29 -2 47 -9l2975 -1166c78 -35 94 -105 37 -162l-603 -603l6791 -6788l-566 -565l-6787 6790l-604 -603c-57 -57 -127 -40 -162 38l-1159 2968c-26 58 -9 96 31 100z" />
    <glyph glyph-name="263" unicode="&#xe107;" horiz-adv-x="9300" 
d="M21 10978c16 5 40 2 72 -9l847 -372l3 3l10 -9l2400 -1057c78 -35 71 -85 -7 -106l-965 -266l6906 -6906l-566 -566l-6906 6907l-266 -966c-28 -85 -71 -84 -106 -6l-1044 2387l-22 22l10 10l-372 847c-22 49 -20 79 6 87z" />
    <glyph glyph-name="264" unicode="&#xe108;" horiz-adv-x="9300" 
d="M47 10981c14 0 31 -3 50 -12l4384 -1725c78 -35 92 -106 35 -163l-1025 -1025l5800 -5800l-566 -566l-5800 5800l-1025 -1024c-57 -56 -128 -44 -163 34l-1725 4384c-26 58 -8 96 35 97z" />
    <glyph glyph-name="265" unicode="&#xe109;" horiz-adv-x="9300" 
d="M10 10884c-31 91 10 109 78 78l854 -365l3 3l6 -6l3812 -1635c71 -28 69 -69 -9 -90l-1666 -413l6200 -6200l-565 -565l-6200 6200l-413 -1666c-21 -78 -55 -87 -90 -9z" />
    <glyph glyph-name="266" unicode="&#xe10a;" horiz-adv-x="9800" 
d="M3228 11228c85 14 98 -27 41 -84l-1307 -1306l7778 -7782l-565 -565l-7782 7778l-1306 -1307c-57 -57 -98 -44 -84 41l381 2675c14 85 84 155 169 169z" />
    <glyph glyph-name="267" unicode="&#xe10b;" horiz-adv-x="9400" 
d="M3 10878c-14 81 28 127 106 106l3528 -912c85 -14 101 -87 44 -144l-1025 -1025l6647 -6647l-566 -566l-6647 6647l-1025 -1025c-57 -56 -123 -34 -144 44z" />
    <glyph glyph-name="268" unicode="&#xe10c;" horiz-adv-x="9600" 
d="M2378 11188c85 14 101 -28 44 -85l-885 -884l8063 -8063l-566 -565l-8062 8062l-885 -884c-57 -56 -98 -42 -84 43l240 1966c14 85 84 155 169 169z" />
    <glyph glyph-name="269" unicode="&#xe10d;" horiz-adv-x="9400" 
d="M56 10984c14 1 29 -2 47 -9l2397 -628c85 -14 97 -84 40 -141l-594 -594l7357 -7356l-566 -566l-7356 7357l-606 -610c-56 -56 -120 -34 -141 44l-631 2397c-11 64 12 102 53 106z" />
    <glyph glyph-name="270" unicode